

   ooooooooo.               ooo        ooooo oooooooooo.  oooooooooooo
   `888   `Y88.             `88.       .888' `888'   `Y8b `888'     `8
    888   .d88' oooo    ooo  888b     d'888   888     888  888
    888ooo88P'   `88.  .8'   8 Y88. .P  888   888oooo888'  888oooo8
    888           `88..8'    8  `888'   888   888    `88b  888    "
    888            `888'     8    Y     888   888    .88P  888       o
   o888o            .8'     o8o        o888o o888bood8P'  o888ooooood8
                .o..P'
                `Y8P'


   -- date & time   : 2020-03-09 & 12:35:30
   -- git version   : 24501d273739aa6cb8a19f37d7cb4f38d22290aa
   -- local masters :
   #### rank / node :      0 / eduroam-6-127.nomadic.bris.ac.uk


                     ---------------------------------------------                     
                                     FCI expansion                                     
                     ---------------------------------------------                     


 --------------------------------------------------------------------------------------------
 STATUS-1:  order k = 1 MBE started  ---  8 tuples in total
 --------------------------------------------------------------------------------------------
 STATUS-1:   [##################################################]   ---  100.00 %
 --------------------------------------------------------------------------------------------
 STATUS-1:   [##################################################]   ---  100.00 %
 --------------------------------------------------------------------------------------------
 STATUS-1:  order k = 1 MBE done in 0.28s  ---  8 tuples retained
 --------------------------------------------------------------------------------------------
 ||||||||||||||||||||||||||||||||||||||||||||||||||||||||||||||||||||||||||||||||||||||||||||
 --------------------------------------------------------------------------------------------
 RESULT-1:                energy for root 0 (total increment = 2.8585e-10)                 
 --------------------------------------------------------------------------------------------
 --------------------------------------------------------------------------------------------
 RESULT-1:      mean increment     |      min. abs. increment     |     max. abs. increment
 --------------------------------------------------------------------------------------------
 RESULT-1:        3.5732e-11       |           3.5758e-11         |          1.9752e-10
 --------------------------------------------------------------------------------------------
 --------------------------------------------------------------------------------------------
 RESULT-1:   mean # determinants   |      min. # determinants     |     max. # determinants
 --------------------------------------------------------------------------------------------
 RESULT-1:        1.000e+01        |           9.000e+00          |          1.100e+01
 --------------------------------------------------------------------------------------------
 ||||||||||||||||||||||||||||||||||||||||||||||||||||||||||||||||||||||||||||||||||||||||||||
 --------------------------------------------------------------------------------------------
 STATUS-1:  order k = 1 purging started
 --------------------------------------------------------------------------------------------
 STATUS-1:  order k = 1 purging done in 0.00s
 --------------------------------------------------------------------------------------------


 --------------------------------------------------------------------------------------------
 STATUS-2:  order k = 2 MBE started  ---  28 tuples in total
 --------------------------------------------------------------------------------------------
 STATUS-2:   [##################################################]   ---  100.00 %
 --------------------------------------------------------------------------------------------
 STATUS-2:   [##################################################]   ---  100.00 %
 --------------------------------------------------------------------------------------------
 STATUS-2:  order k = 2 MBE done in 0.77s  ---  15 tuples retained
 --------------------------------------------------------------------------------------------
 ||||||||||||||||||||||||||||||||||||||||||||||||||||||||||||||||||||||||||||||||||||||||||||
 --------------------------------------------------------------------------------------------
 RESULT-2:                energy for root 0 (total increment = -1.8957e-04)                
 --------------------------------------------------------------------------------------------
 --------------------------------------------------------------------------------------------
 RESULT-2:      mean increment     |      min. abs. increment     |     max. abs. increment
 --------------------------------------------------------------------------------------------
 RESULT-2:       -6.7703e-06       |           4.4564e-07         |          2.5889e-05
 --------------------------------------------------------------------------------------------
 --------------------------------------------------------------------------------------------
 RESULT-2:   mean # determinants   |      min. # determinants     |     max. # determinants
 --------------------------------------------------------------------------------------------
 RESULT-2:        6.500e+01        |           5.700e+01          |          6.900e+01
 --------------------------------------------------------------------------------------------
 ||||||||||||||||||||||||||||||||||||||||||||||||||||||||||||||||||||||||||||||||||||||||||||
 --------------------------------------------------------------------------------------------
 RESULT-2:  screened MOs --- [7]
 RESULT-2:                   [12]
 --------------------------------------------------------------------------------------------
 RESULT-2:  total number of screened MOs: 2
 --------------------------------------------------------------------------------------------
 ||||||||||||||||||||||||||||||||||||||||||||||||||||||||||||||||||||||||||||||||||||||||||||
 --------------------------------------------------------------------------------------------
 STATUS-2:  order k = 2 purging started
 --------------------------------------------------------------------------------------------
 ||||||||||||||||||||||||||||||||||||||||||||||||||||||||||||||||||||||||||||||||||||||||||||
 --------------------------------------------------------------------------------------------
 RESULT-2:  after purging of tuples --- no. of tuples at k =  1 has been reduced by:  25.00 %
 RESULT-2:                              no. of tuples at k =  2 has been reduced by:  46.43 %
 --------------------------------------------------------------------------------------------
 RESULT-2:  total number of reduced tuples: 15 (41.67 %)
 --------------------------------------------------------------------------------------------
 ||||||||||||||||||||||||||||||||||||||||||||||||||||||||||||||||||||||||||||||||||||||||||||
 --------------------------------------------------------------------------------------------
 STATUS-2:  order k = 2 purging done in 0.00s
 --------------------------------------------------------------------------------------------


 --------------------------------------------------------------------------------------------
 STATUS-3:  order k = 3 MBE started  ---  20 tuples in total
 --------------------------------------------------------------------------------------------
 STATUS-3:   [##################################################]   ---  100.00 %
 --------------------------------------------------------------------------------------------
 STATUS-3:   [##################################################]   ---  100.00 %
 --------------------------------------------------------------------------------------------
 STATUS-3:  order k = 3 MBE done in 0.73s  ---  20 tuples retained
 --------------------------------------------------------------------------------------------
 ||||||||||||||||||||||||||||||||||||||||||||||||||||||||||||||||||||||||||||||||||||||||||||
 --------------------------------------------------------------------------------------------
 RESULT-3:                energy for root 0 (total increment = 5.2956e-05)                 
 --------------------------------------------------------------------------------------------
 --------------------------------------------------------------------------------------------
 RESULT-3:      mean increment     |      min. abs. increment     |     max. abs. increment
 --------------------------------------------------------------------------------------------
 RESULT-3:        2.6478e-06       |           9.5145e-07         |          4.2955e-05
 --------------------------------------------------------------------------------------------
 --------------------------------------------------------------------------------------------
 RESULT-3:   mean # determinants   |      min. # determinants     |     max. # determinants
 --------------------------------------------------------------------------------------------
 RESULT-3:        3.210e+02        |           3.170e+02          |          3.250e+02
 --------------------------------------------------------------------------------------------
 ||||||||||||||||||||||||||||||||||||||||||||||||||||||||||||||||||||||||||||||||||||||||||||
 --------------------------------------------------------------------------------------------
 STATUS-3:  order k = 3 purging started
 --------------------------------------------------------------------------------------------
 STATUS-3:  order k = 3 purging done in 0.00s
 --------------------------------------------------------------------------------------------


 --------------------------------------------------------------------------------------------
 STATUS-4:  order k = 4 MBE started  ---  15 tuples in total
 --------------------------------------------------------------------------------------------
 STATUS-4:   [##################################################]   ---  100.00 %
 --------------------------------------------------------------------------------------------
 STATUS-4:   [##################################################]   ---  100.00 %
 --------------------------------------------------------------------------------------------
 STATUS-4:  order k = 4 MBE done in 0.67s  ---  15 tuples retained
 --------------------------------------------------------------------------------------------
 ||||||||||||||||||||||||||||||||||||||||||||||||||||||||||||||||||||||||||||||||||||||||||||
 --------------------------------------------------------------------------------------------
 RESULT-4:                energy for root 0 (total increment = -3.6813e-04)                
 --------------------------------------------------------------------------------------------
 --------------------------------------------------------------------------------------------
 RESULT-4:      mean increment     |      min. abs. increment     |     max. abs. increment
 --------------------------------------------------------------------------------------------
 RESULT-4:       -2.4542e-05       |           5.7586e-06         |          4.4874e-05
 --------------------------------------------------------------------------------------------
 --------------------------------------------------------------------------------------------
 RESULT-4:   mean # determinants   |      min. # determinants     |     max. # determinants
 --------------------------------------------------------------------------------------------
 RESULT-4:        1.260e+03        |           1.234e+03          |          1.284e+03
 --------------------------------------------------------------------------------------------
 ||||||||||||||||||||||||||||||||||||||||||||||||||||||||||||||||||||||||||||||||||||||||||||
 --------------------------------------------------------------------------------------------
 STATUS-4:  order k = 4 purging started
 --------------------------------------------------------------------------------------------
 STATUS-4:  order k = 4 purging done in 0.00s
 --------------------------------------------------------------------------------------------


 --------------------------------------------------------------------------------------------
 STATUS-5:  order k = 5 MBE started  ---  6 tuples in total
 --------------------------------------------------------------------------------------------
 STATUS-5:   [##################################################]   ---  100.00 %
 --------------------------------------------------------------------------------------------
 STATUS-5:   [##################################################]   ---  100.00 %
 --------------------------------------------------------------------------------------------
 STATUS-5:  order k = 5 MBE done in 0.33s  ---  6 tuples retained
 --------------------------------------------------------------------------------------------
 ||||||||||||||||||||||||||||||||||||||||||||||||||||||||||||||||||||||||||||||||||||||||||||
 --------------------------------------------------------------------------------------------
 RESULT-5:                energy for root 0 (total increment = 1.0566e-04)                 
 --------------------------------------------------------------------------------------------
 --------------------------------------------------------------------------------------------
 RESULT-5:      mean increment     |      min. abs. increment     |     max. abs. increment
 --------------------------------------------------------------------------------------------
 RESULT-5:        1.7610e-05       |           5.8146e-06         |          3.4277e-05
 --------------------------------------------------------------------------------------------
 --------------------------------------------------------------------------------------------
 RESULT-5:   mean # determinants   |      min. # determinants     |     max. # determinants
 --------------------------------------------------------------------------------------------
 RESULT-5:        4.049e+03        |           4.036e+03          |          4.076e+03
 --------------------------------------------------------------------------------------------
 ||||||||||||||||||||||||||||||||||||||||||||||||||||||||||||||||||||||||||||||||||||||||||||
 --------------------------------------------------------------------------------------------
 STATUS-5:  order k = 5 purging started
 --------------------------------------------------------------------------------------------
 STATUS-5:  order k = 5 purging done in 0.00s
 --------------------------------------------------------------------------------------------


 --------------------------------------------------------------------------------------------
 STATUS-6:  order k = 6 MBE started  ---  1 tuples in total
 --------------------------------------------------------------------------------------------
 STATUS-6:   [##################################################]   ---  100.00 %
 --------------------------------------------------------------------------------------------
 STATUS-6:   [##################################################]   ---  100.00 %
 --------------------------------------------------------------------------------------------
 STATUS-6:  order k = 6 MBE done in 0.17s  ---  0 tuples retained
 --------------------------------------------------------------------------------------------
 ||||||||||||||||||||||||||||||||||||||||||||||||||||||||||||||||||||||||||||||||||||||||||||
 --------------------------------------------------------------------------------------------
 RESULT-6:                energy for root 0 (total increment = -4.0053e-07)                
 --------------------------------------------------------------------------------------------
 --------------------------------------------------------------------------------------------
 RESULT-6:      mean increment     |      min. abs. increment     |     max. abs. increment
 --------------------------------------------------------------------------------------------
 RESULT-6:       -4.0053e-07       |           4.0053e-07         |          4.0053e-07
 --------------------------------------------------------------------------------------------
 --------------------------------------------------------------------------------------------
 RESULT-6:   mean # determinants   |      min. # determinants     |     max. # determinants
 --------------------------------------------------------------------------------------------
 RESULT-6:        1.115e+04        |           1.115e+04          |          1.115e+04
 --------------------------------------------------------------------------------------------
 ||||||||||||||||||||||||||||||||||||||||||||||||||||||||||||||||||||||||||||||||||||||||||||
 --------------------------------------------------------------------------------------------
 RESULT-6:  screened MOs --- [5-6]
 RESULT-6:                   [8-11]
 --------------------------------------------------------------------------------------------
 RESULT-6:  total number of screened MOs: 8
 --------------------------------------------------------------------------------------------
 ||||||||||||||||||||||||||||||||||||||||||||||||||||||||||||||||||||||||||||||||||||||||||||
 --------------------------------------------------------------------------------------------
 STATUS-6:  order k = 6 purging started
 --------------------------------------------------------------------------------------------
 STATUS-6:  order k = 6 purging done in 0.00s
 --------------------------------------------------------------------------------------------



